countries,29
developing,17
population,16
fertility,15
selected,14
growth,9
income,8
relation,8
policy,6
change,4
family,4
rates,4
projected,3
high,3
case,3
years,3
east,3
ten,3
africa,3
demographic,3
use,3
industrial,3
contraceptive,3
planning,3
decline,3
contraception,3
agricultural,2
urban,2
production,2
rapid,2
need,2
public,2
assistance,2
middle,2
north,2
education,2
international,2
prospects,2
asia,2
mortality,2
decisions,2
birth,2
india,2
past,2
economy,2
world,2
life,2
expectancy,2
actual,2
world's,2
largest,2
total,2
number,1
pyramid,1
age,1
brazil's,1
future,1
paths,1
alternative,1
under,1
school-age,1
working-age,1
populations,1
will,1
index,1
workers,1
start,1
foodgrains,1
inhabitants,1
million,1
more,1
agglomerations,1
region,1
increase,1
natural,1
death,1
government,1
developed,1
transition,1
influence,1
major,1
seven,1
unemployment,1
inflation,1
gdp,1
between,1
share,1
countries',1
person,1
living,1
standard,1
indicators,1
a.d.,1
rate,1
supplement,1
data,1
challenge,1
new,1
success,1
adjustment,1
